﻿Presets = {
	
	Languages = {
		English "Thorough\Presets_En.txt"
	}
	
	/// NEW ///
	Regions = {
		MAP = "Thorough\DataMaps\Continents.png"
	}
	
	
	Blanco = {
		COORDINATES = 25° 43' N 32° 39' E
	}

	
}
